PURELY NUMERIC COLUMNS:  (Make it work for Wind Spd or WindSpd)

				Dewpt	RHx		Slp		Temp	Wind Dir	Wind Spd
		Type:	float	int		float	float	int			float
Default value:	9999	999		99999	9999	999			9999


Ignore default values!!!
